<?xml version="1.0" encoding="UTF-8" standalone="no"?>
<svg
   viewBox="0 0 1024 1024"
   version="1.1"
   id="svg1"
   xmlns="http://www.w3.org/2000/svg"
   xmlns:svg="http://www.w3.org/2000/svg">
  <defs
     id="defs1" />
  <path
     d="M 511.56426,463.71361 C 465.08482,373.65971 339.00936,205.46225 221.64879,122.67076 109.22667,43.365233 66.233191,57.018566 38.345532,69.80041 5.8099291,84.61573 0,134.58112 0,163.92126 0,193.2614 15.977305,405.03333 26.725674,440.1834 61.585248,556.96297 185.04624,596.47049 298.92085,583.68865 c 5.80993,-0.87149 11.61986,-1.74298 17.72028,-2.32397 -5.80992,0.87149 -11.91035,1.74297 -17.72028,2.32397 -166.74496,24.6922 -315.188651,85.40596 -120.55603,301.82581 213.80539,221.35834 293.11092,-47.35092 333.78043,-183.88425 40.6695,136.24283 87.43943,395.36569 329.71347,183.88425 C 1024,701.63021 891.82411,608.38085 725.07915,583.68865 c -5.80993,-0.581 -11.91036,-1.45248 -17.72028,-2.32397 6.10042,0.87149 11.91035,1.45248 17.72028,2.32397 C 838.95376,596.47049 962.70525,556.96297 997.27433,440.1834 1007.7322,404.74283 1024,193.2614 1024,163.92126 1024,134.58112 1018.1901,84.61573 985.65447,69.80041 957.47631,57.018566 914.77333,43.365233 802.35121,122.67076 684.11915,205.75275 558.04369,373.65971 511.56426,463.71361 Z"
     id="path1" />
</svg>
