<?xml version="1.0" encoding="UTF-8" standalone="no"?>
<svg
   viewBox="0 0 1024 1024"
   version="1.1"
   id="svg1"
   xmlns="http://www.w3.org/2000/svg"
   xmlns:svg="http://www.w3.org/2000/svg">
  <defs
     id="defs1" />
  <path
     d="m 438.41609,499.178 c 0,121.03769 -98.2004,219.178 -219.11789,219.178 C 98.200397,718.356 0,620.21569 0,499.178 0,378.1403 98.200397,280 219.2982,280 c 120.91749,0 219.11789,98.1403 219.11789,219.178 z m 583.25261,0 c 0,121.03769 -98.20034,219.178 -219.29814,219.178 -120.9175,0 -219.1179,-98.20041 -219.1179,-219.178 0,-120.9776 98.2004,-219.178 219.1179,-219.178 121.0978,0 219.29814,98.1403 219.29814,219.178 z m -60.0981,0 c 0,-87.74332 -71.39662,-159.07984 -159.20004,-159.07984 -87.68321,0 -159.01973,71.39662 -159.01973,159.07984 0,87.68321 71.33652,159.07983 159.01973,159.07983 87.80342,0 159.20004,-71.33651 159.20004,-159.07983 z"
     id="path1" />
</svg>
