<?xml version="1.0" encoding="UTF-8" standalone="no"?>
<svg
   viewBox="0 0 1024 1024"
   version="1.1"
   id="svg1"
   xmlns="http://www.w3.org/2000/svg"
   xmlns:svg="http://www.w3.org/2000/svg">
  <defs
     id="defs1" />
  <path
     d="m 232.8733,406.69184 c 75.42238,169.70752 214.12318,305.69131 386.5443,378.70592 28.25557,-20.42539 44.20949,-56.07083 63.24907,-84.97835 14.22336,-14.06976 42.66666,-41.51296 71.10997,-28.1361 70.75157,33.26634 104.52309,44.89216 184.89003,56.27221 7.89845,1.11957 29.6209,8.40704 42.66666,9.70752 19.62327,1.95925 42.66667,18.432 42.66667,58.18368 v 157.21131 c 0,28.1361 -23.0912,65.64867 -52.87936,67.73417 C 946.24085,1023.1296 925.93835,1024 910.22336,1024 405.33333,1024 0,607.35147 0,112.54955 0,97.000448 0.878592,76.921173 2.6371413,52.307627 4.743168,22.841003 42.666667,0 71.110997,0 H 230.03307 c 40.19029,0 56.84053,22.796288 58.82026,42.206208 1.31755,12.896597 8.68011,34.391723 9.81334,42.206208 11.50634,79.500284 23.25845,112.906584 56.89002,182.892544 13.52022,28.13952 -14.22336,56.27563 -28.44672,70.34539 -30.73365,19.80757 -75.5473,37.54666 -94.23667,69.04149 z"
     id="path1" />
</svg>
